Sampling Distributions
…
Observe in the output that bowl has 2400 rows, telling us that the bowl contains 2400 equally-sized balls. The first variable ball_ID is used merely as an identification variable, none of the balls in the actual bowl are marked with numbers. The second variable color indicates whether a particular virtual ball is red or white.

Now that we have a virtual analogue of our bowl, we now need a virtual analogue for the shovel seen in Figure 2; well use this virtual shovel to generate our virtual random samples of 50 balls. Were going to use the rep_sample_n() function included in the moderndive package. This function allows us to take repeated, or replicated, samples of size \(n\). Run the following and explore.

virtual_shovel <- bowl %>% 
  rep_sample_n(size = 50)

virtual_shovel

## # A tibble: 50 x 3
## # Groups:   replicate [1]
##    replicate ball_ID color
##        <int>   <int> <chr>
##  1         1    2224 red  
##  2         1    1716 white
##  3         1    2325 white
##  4         1     533 white
##  5         1      47 white
##  6         1     479 white
##  7         1     219 white
##  8         1    2128 red  
##  9         1      42 white
## 10         1    1855 red  
## #  with 40 more rows
…
virtual_samples <- bowl %>% 
  rep_sample_n(size = 50, reps = 30)

#kable(virtual_samples)

Observe that while the first 50 rows of replicate are equal to 1, the next 50 rows of replicate are equal to 2. This is telling us that the first 50 rows correspond to the first sample of 50 balls while the next 50 correspond to the second sample of 50 balls. This pattern continues for all reps = 30 replicates and thus virtual_samples has \(3050=1500\) rows.

virtual_prop_red <- virtual_samples %>% 
  group_by(replicate) %>% 
  summarize(red = sum(color == "red")) %>% 
  mutate(prop_red = red / 50)

virtual_prop_red

## # A tibble: 30 x 3
##    replicate   red prop_red
##        <int> <int>    <dbl>
##  1         1    13     0.26
##  2         2    26     0.52
##  3         3    15     0.3 
##  4         4    27     0.54
##  5         5    15     0.3 
##  6         6    22     0.44
##  7         7    25     0.5 
##  8         8    16     0.32
##  9         9    20     0.4 
## 10        10    23     0.46
## #  with 20 more rows
…
