CH 3 MSWR
…
Define the null and alternative hypothesis:

\(H_0: \mu_M - \mu_F = 0\)

\(H_a: \mu_M - \mu_F > 0\)

Get data

data(Beerwings)

df = data.frame(hotwings = Beerwings$Hotwings, gender = Beerwings$Gender)
df = tbl_df(df)
df

# A tibble: 30 x 2
   hotwings gender
      <int> <fct> 
 1        4 F     
 2        5 F     
 3        5 F     
 4        6 F     
 5        7 F     
 6        7 F     
 7        7 M     
 8        8 F     
 9        8 M     
10        8 M     
#  with 20 more rows
…
